{
  "prepare_queue": {
    "installed": [],
    "uninstalled": []
  },
  "config_munge": {
    "files": {}
  },
  "installed_plugins": {
    "cordova-plugin-badge": {
      "PACKAGE_NAME": "fr.cslbehring.cslhemoj"
    },
    "cordova-plugin-device": {
      "PACKAGE_NAME": "fr.cslbehring.cslhemoj"
    },
    "cordova-plugin-dialogs": {
      "PACKAGE_NAME": "fr.cslbehring.cslhemoj"
    },
    "cordova-plugin-file": {
      "PACKAGE_NAME": "fr.cslbehring.cslhemoj"
    },
    "cordova-plugin-inappbrowser": {
      "PACKAGE_NAME": "fr.cslbehring.cslhemoj"
    },
    "cordova-plugin-local-notification": {
      "PACKAGE_NAME": "fr.cslbehring.cslhemoj"
    },
    "cordova-plugin-media": {
      "PACKAGE_NAME": "fr.cslbehring.cslhemoj"
    },
    "cordova-plugin-native-ringtones": {
      "PACKAGE_NAME": "fr.cslbehring.cslhemoj"
    },
    "cordova-plugin-splashscreen": {
      "PACKAGE_NAME": "fr.cslbehring.cslhemoj"
    },
    "cordova-plugin-statusbar": {
      "PACKAGE_NAME": "fr.cslbehring.cslhemoj"
    },
    "cordova-plugin-whitelist": {
      "PACKAGE_NAME": "fr.cslbehring.cslhemoj"
    }
  },
  "dependent_plugins": {}
}